\relax 
\@writefile{toc}{\contentsline {section}{\numberline {0.1}Technical implementation}{1}}
\@writefile{toc}{\contentsline {subsection}{\numberline {0.1.1}Data searching application}{1}}
\@writefile{toc}{\contentsline {subsection}{\numberline {0.1.2}Data Linking and semantic database}{2}}
\@writefile{toc}{\contentsline {section}{\numberline {0.2}Web application interface}{2}}
\newlabel{ss:results}{{0.2}{2}}
\@writefile{lof}{\contentsline {figure}{\numberline {1}{\ignorespaces View of the data visualization interface}}{3}}
\newlabel{fg:screenshot}{{1}{3}}
\@writefile{toc}{\contentsline {section}{\numberline {0.3}Future work}{4}}
